  10.0 210.0  40.0 340.0 120.0 290.0  30.0 130.0 220.0 150.0 320.0 250.0 170.0 110.0 310.0  60.0 350.0  70.0   0.0 360.0 230.0 160.0 200.0  50.0  90.0 240.0 270.0 280.0 300.0 180.0 100.0 330.0 260.0 140.0  20.0 190.0  80.0
 140.0 190.0 290.0  70.0   0.0 240.0 110.0 340.0 210.0 330.0  20.0 160.0  80.0  50.0 170.0 320.0 120.0 360.0 220.0 310.0 180.0 200.0 130.0  30.0 270.0  90.0 250.0  10.0 300.0  60.0 350.0 100.0 150.0  40.0 230.0 260.0 280.0
 140.0 110.0 200.0  40.0 240.0  90.0  30.0  80.0  10.0 250.0  20.0 130.0 210.0 270.0  60.0 230.0   0.0 260.0  50.0 100.0 300.0 220.0 160.0 290.0 310.0 350.0 150.0 190.0  70.0 180.0 120.0 280.0 340.0 170.0 360.0 320.0 330.0
 230.0 310.0 320.0 260.0 100.0 180.0 240.0  10.0 110.0 330.0 200.0  50.0  80.0 220.0  20.0  90.0 280.0   0.0 160.0 300.0  60.0 350.0  40.0 250.0  30.0  70.0 130.0 190.0 170.0 210.0 270.0 150.0 360.0 120.0 290.0 340.0 140.0
 150.0   0.0 130.0 160.0 250.0 320.0 170.0  80.0  90.0 340.0 280.0 290.0 180.0 220.0  10.0 110.0 240.0  70.0 330.0 190.0  20.0  40.0 200.0  30.0 230.0 260.0 310.0 360.0 270.0 100.0 210.0 120.0  50.0 140.0 350.0  60.0 300.0
 320.0 130.0  90.0  30.0 150.0  60.0 300.0  70.0 160.0 350.0 210.0   0.0 250.0  80.0 310.0  50.0 260.0  40.0 140.0 220.0  20.0 360.0 110.0 190.0 180.0 100.0 340.0 120.0 170.0 290.0 270.0 230.0 240.0 330.0 280.0 200.0  10.0
 290.0 310.0 190.0 140.0  80.0 250.0 130.0  60.0 230.0  20.0 320.0 120.0 350.0 280.0 360.0 240.0   0.0 100.0 210.0 260.0 300.0 180.0 160.0  70.0  30.0  90.0 330.0 170.0  40.0 200.0 150.0  50.0  10.0 270.0 220.0 340.0 110.0
  10.0 180.0 150.0 230.0 270.0  20.0 340.0 190.0 120.0 170.0 200.0  60.0 100.0 160.0 250.0  40.0   0.0 330.0 210.0 290.0 280.0  80.0 260.0  90.0  50.0 310.0 360.0  70.0 320.0  30.0 140.0 110.0 350.0 240.0 130.0 300.0 220.0
